Marie Dupont, 24/09/1990, 456 Avenue des Fleurs, Lyon, 06 12 34 56 78
Pierre Lambert, 02/07/1975, 789 Rue du Château, Marseille, 04 56 78 90 12
Sophie Bernard, 19/03/1988, 987 Avenue des Lilas, Bordeaux, 06 54 32 10 98
Thomas Dubois, 05/11/1995, 321 Rue de la Paix, Toulouse, 07 89 01 23 45
Laura Leroy, 29/08/1984, 654 Avenue du Soleil, Nice, 04 32 10 98 76
Alexandre Moreau, 11/02/1979, 789 Rue du Moulin, Nantes, 02 34 56 78 90
Charlotte Lefevre, 26/06/1992, 123 Avenue des Roses, Strasbourg, 03 45 67 89 01
Nicolas Roussel, 08/12/1987, 456 Rue de la Fontaine, Rennes, 02 43 65 87 09
Camille Girard, 15/01/1993, 987 Avenue du Lac, Lille, 06 78 90 12 34